dump.vcd
$date
	Fri Jul 11 11:44:34 2025
$end

$version
	Synopsys VCS version U-2023.03-SP2_Full64
$end

$timescale
	1ns
$end

$comment Csum: 1 a26076d49d579b38 $end


$scope module $unit $end
$upscope $end


$scope module tb_top_packet_divider $end
$var reg 32 ! freq [31:0] $end
$var reg 1 " clk $end
$var reg 1 # rst_n $end
$var real 64 $ h_time_p $end

$scope begin unnamed$$_vcs_0 $end
$upscope $end


$scope begin unnamed$$_vcs_4 $end
$upscope $end


$scope begin unnamed$$_vcs_1 $end
$upscope $end


$scope begin unnamed$$_vcs_2 $end
$upscope $end


$scope begin unnamed$$_vcs_3 $end
$upscope $end


$scope module reg_vintf $end
$var reg 1 % clk $end
$var reg 1 & rst_n $end
$var reg 3 ' addr [2:0] $end
$var reg 1 ( wr $end
$var reg 8 ) wr_data [7:0] $end
$var reg 1 * rd $end
$var reg 8 + rd_data [7:0] $end
$var reg 1 , int_n $end
$upscope $end


$scope module tx_vintf $end
$var reg 1 % clk $end
$var reg 1 - tx_en $end
$var reg 8 . tx_data [7:0] $end
$var reg 1 & rst_n $end
$upscope $end


$scope module dut2 $end
$var reg 8 / parity [7:0] $end
$var reg 8 0 tx_length [7:0] $end
$var wire 1 1 clk $end
$var wire 1 2 rst_n $end
$var wire 3 3 addr [2:0] $end
$var wire 1 4 wr $end
$var wire 1 5 rd $end
$var wire 8 6 wr_data [7:0] $end
$var reg 8 7 rd_data [7:0] $end
$var reg 1 8 tx_en $end
$var reg 8 9 tx_data [7:0] $end
$var reg 1 , int_n $end
$var reg 8 : pad_byte [7:0] $end
$var reg 8 ; cmd_reg [7:0] $end
$var reg 8 < ctrl_reg [7:0] $end

$scope task small_task $end
$var reg 32 = i [31:0] $end

$scope begin unnamed$$_0 $end
$upscope $end

$upscope $end


$scope task divisor $end

$scope begin divisor_0 $end

$scope begin even_bytes_of_payload $end

$scope begin no_padding $end

$scope begin unnamed$$_0 $end
$upscope $end


$scope fork unnamed$$_vcs_0 $end

$scope begin unnamed$$_vcs_1 $end
$upscope $end


$scope begin unnamed$$_vcs_2 $end
$upscope $end

$upscope $end

$upscope $end


$scope begin padding_required $end

$scope begin even_parity $end
$upscope $end


$scope begin odd_parity $end
$upscope $end


$scope begin unnamed$$_0 $end
$upscope $end

$upscope $end

$upscope $end


$scope begin odd_bytes_of_payload $end
$upscope $end

$upscope $end


$scope begin divisor_1 $end
$upscope $end


$scope begin divisor_grtrthan1 $end
$upscope $end


$scope begin invalid_divisor $end
$upscope $end

$upscope $end


$scope task parity_check $end
$var reg 32 > i [31:0] $end

$scope begin even_parity $end
$upscope $end


$scope begin odd_parity $end
$upscope $end

$upscope $end


$scope task ctrl_logic $end
$upscope $end


$scope begin c1 $end

$scope begin unnamed$$_0 $end
$upscope $end


$scope begin c2 $end

$scope begin unnamed$$_0 $end
$var reg 32 ? j [31:0] $end
$upscope $end

$upscope $end


$scope begin c3 $end
$upscope $end

$upscope $end


$scope begin unnamed$$_vcs_0 $end
$upscope $end

$upscope $end

$upscope $end


$scope module uvm_pkg $end
$var time 64 @ setting_offset $end
$var reg 32 A uvm_global_random_seed [31:0] $end
$var reg 32 B UVM_UNBOUNDED_CONNECTIONS [31:0] $end
$var reg 1 C uvm_start_uvm_declarations $end
$var reg 32 D setting_verbosity [31:0] $end
$var reg 1 E is_verdi_set_verbosity_called $end
$upscope $end

$enddefinitions $end

#0
$dumpvars
0E
1C
bxxxxxxxxxxxxxxxxxxxxxxxxxxxxxxxxxxxxxxxxxxxxxxxxxxxxxxxxxxxxxxxx @
b11111111111111111111111111111111 B
b00000000000000000000000000000000 D
b01000010000001111100110001000111 A
0"
1#
b00000000000000000000000000010000 !
r31.25000000000000  $
bxxxxxxxx +
bxxxxxxxx )
bxxx '
bxxxxxxxx .
x8
bxxxxxxxx ;
bxxxxxxxx <
b00000000 :
bxxxxxxxx /
bxxxxxxxx 7
bxxxxxxxx 9
bxxxxxxxx 0
b00000000000000000000000000000000 ?
b00000000000000000000000000000000 >
b00000000000000000000000000000000 =
12
bxxx 3
bxxxxxxxx 6
x5
x4
0%
1&
01
x*
x(
x-
x,
$end
#31
1"
11
1%
#60
0#
02
0&
b000 '
b000 3
0(
04
b00000000 )
b00000000 6
0*
05
#62
0"
01
0%
#93
1"
11
1%
#124
0"
01
0%
#155
1"
11
1%
#186
0"
01
0%
#217
1"
11
1%
#248
0"
01
0%
#279
1"
11
1%
#310
0"
01
0%
#341
1"
11
1%
#350
1#
12
1&
#372
0"
01
0%
#403
1"
11
1%
b101 '
b101 3
b10100010 )
b10100010 6
1*
15
#434
0"
01
0%
#465
1"
11
1%
b11111111 7
b11111111 +
0*
05
#496
0"
01
0%
#527
1"
11
1%
b11010011 )
b11010011 6
1*
15
#558
0"
01
0%
#589
1"
11
1%
0*
05
#620
0"
01
0%
#651
1"
11
1%
b00101011 )
b00101011 6
1*
15
#682
0"
01
0%
#713
1"
11
1%
0*
05
#744
0"
01
0%
#775
1"
11
1%
b01100000 )
b01100000 6
1*
15
#806
0"
01
0%
#837
1"
11
1%
0*
05
#868
0"
01
0%
#899
1"
11
1%
b00001001 )
b00001001 6
1*
15
#930
0"
01
0%
#961
1"
11
1%
0*
05
#992
0"
01
0%
#1023
1"
11
1%
b11111101 )
b11111101 6
1*
15
#1054
0"
01
0%
#1085
1"
11
1%
b00000000 7
b00000000 +
0*
05
#1116
0"
01
0%
#1147
1"
11
1%
b110 '
b110 3
1(
14
b01011110 )
b01011110 6
#1178
0"
01
0%
#1209
1"
11
1%
b00000000000000000000000000000001 ?
b00000100 )
b00000100 6
#1240
0"
01
0%
#1271
1"
11
1%
b00000000000000000000000000000010 ?
b010 '
b010 3
b00000010 )
b00000010 6
#1302
0"
01
0%
#1333
1"
11
1%
b00000010 0
b001 '
b001 3
b01000000 )
b01000000 6
#1364
0"
01
0%
#1395
1"
11
1%
b01000000 <
b000 '
b000 3
b00000001 )
b00000001 6
#1426
0"
01
0%
#1457
1"
11
1%
b00000001 ;
b101 '
b101 3
0(
04
b10011111 )
b10011111 6
#1488
0"
01
0%
#1519
1"
11
1%
#1550
0"
01
0%
#1581
1"
11
1%
18
1-
b10111110 9
b10111110 .
b00000010 /
#1612
0"
01
0%
#1643
1"
11
1%
b00000000000000000000000000000001 >
b11101111 9
b11101111 .
b01011100 /
#1674
0"
01
0%
#1705
1"
11
1%
b00000000000000000000000000000010 >
b00000010 9
b00000010 .
b01011000 /
#1736
0"
01
0%
#1767
1"
11
1%
b00000000000000000000000000000001 =
b01011110 9
b01011110 .
#1798
0"
01
0%
#1829
1"
11
1%
b00000000000000000000000000000010 =
b00000100 9
b00000100 .
b00000000000000000000000000000000 =
#1860
0"
01
0%
#1891
1"
11
1%
b01011000 9
b01011000 .
#1922
0"
01
0%
#1953
1"
11
1%
b11011110 9
b11011110 .
#1984
0"
01
0%
#2015
1"
11
1%
b10101101 9
b10101101 .
#2046
0"
01
0%
#2077
1"
11
1%
b00000000 ;
#2108
0"
01
0%
#2139
1"
11
1%
08
0-
